{
  "images" : [
    {
      "idiom" : "iphone",
      "scale" : "1x"
    },
    {
      "resizing" : {
        "mode" : "9-part",
        "center" : {
          "mode" : "tile",
          "width" : 11,
          "height" : 11
        },
        "cap-insets" : {
          "bottom" : 0,
          "top" : 1,
          "right" : 0,
          "left" : 1
        }
      },
      "idiom" : "iphone",
      "filename" : "imgBottomTerms@2x.png",
      "scale" : "2x"
    },
    {
      "resizing" : {
        "mode" : "9-part",
        "center" : {
          "mode" : "tile",
          "width" : 16,
          "height" : 16
        },
        "cap-insets" : {
          "bottom" : 0,
          "top" : 1,
          "right" : 0,
          "left" : 1
        }
      },
      "idiom" : "iphone",
      "filename" : "imgBottomTerms@3x.png",
      "scale" : "3x"
    }
  ],
  "info" : {
    "version" : 1,
    "author" : "xcode"
  }
}